<svg width="154" height="33" viewBox="0 0 154 33" fill="none" xmlns="http://www.w3.org/2000/svg">
<path d="M1.6914 7.52259V4.21431H19.0732V7.52259H12.3396V26H8.42497V7.52259H1.6914ZM25.7698 26.3191C24.1316 26.3191 22.7168 25.9787 21.5254 25.2979C20.3411 24.61 19.4298 23.6385 18.7916 22.3832C18.1533 21.1209 17.8342 19.6352 17.8342 17.9261C17.8342 16.2454 18.1533 14.7703 18.7916 13.5009C19.4369 12.2244 20.3376 11.2315 21.4935 10.5224C22.6495 9.80611 24.0075 9.44798 25.5677 9.44798C26.5747 9.44798 27.525 9.61109 28.4186 9.93731C29.3192 10.2564 30.1135 10.7529 30.8014 11.4266C31.4963 12.1003 32.0424 12.9584 32.4395 14.0009C32.8367 15.0362 33.0352 16.2702 33.0352 17.7027V18.8835H19.6426V16.2879H29.344C29.3369 15.5504 29.1774 14.8944 28.8653 14.32C28.5533 13.7385 28.1172 13.281 27.5569 12.9477C27.0038 12.6144 26.3584 12.4478 25.6209 12.4478C24.8337 12.4478 24.1423 12.6392 23.5466 13.0222C22.9509 13.3981 22.4863 13.8945 22.153 14.5115C21.8268 15.1213 21.6602 15.7915 21.6531 16.5219V18.7877C21.6531 19.738 21.8268 20.5536 22.1743 21.2344C22.5218 21.9081 23.0076 22.4258 23.6317 22.7875C24.2557 23.142 24.9862 23.3193 25.823 23.3193C26.3832 23.3193 26.8903 23.2413 27.3442 23.0853C27.798 22.9222 28.1916 22.6846 28.5249 22.3726C28.8582 22.0606 29.11 21.6741 29.2802 21.2131L32.8757 21.6173C32.6487 22.5676 32.2162 23.3973 31.5779 24.1065C30.9467 24.8086 30.1383 25.3547 29.1525 25.7447C28.1668 26.1277 27.0392 26.3191 25.7698 26.3191ZM39.6468 26.3298C38.6114 26.3298 37.6789 26.1454 36.8491 25.7766C36.0265 25.4008 35.374 24.8476 34.8918 24.1172C34.4167 23.3867 34.1791 22.4861 34.1791 21.4152C34.1791 20.4933 34.3493 19.7309 34.6897 19.1281C35.0301 18.5254 35.4946 18.0431 36.0832 17.6814C36.6718 17.3198 37.3349 17.0467 38.0724 16.8624C38.8171 16.6709 39.5865 16.5326 40.3808 16.4475C41.3382 16.3482 42.1147 16.2596 42.7104 16.1815C43.3061 16.0964 43.7387 15.9688 44.0082 15.7986C44.2848 15.6213 44.4231 15.3483 44.4231 14.9795V14.9157C44.4231 14.1143 44.1855 13.4938 43.7103 13.0541C43.2352 12.6144 42.5508 12.3946 41.6573 12.3946C40.7141 12.3946 39.9659 12.6002 39.4128 13.0116C38.8667 13.4229 38.4979 13.9087 38.3065 14.4689L34.711 13.9583C34.9946 12.9655 35.4627 12.1357 36.1151 11.4691C36.7676 10.7954 37.5654 10.2919 38.5086 9.95859C39.4518 9.61818 40.4943 9.44798 41.636 9.44798C42.4232 9.44798 43.2068 9.54018 43.9869 9.72456C44.767 9.90894 45.4797 10.2139 46.1251 10.6394C46.7704 11.0578 47.2881 11.6287 47.6781 12.352C48.0753 13.0754 48.2738 13.9796 48.2738 15.0646V26H44.572V23.7555H44.4443C44.2103 24.2093 43.8805 24.6348 43.455 25.032C43.0366 25.422 42.5083 25.7376 41.87 25.9787C41.2389 26.2128 40.4978 26.3298 39.6468 26.3298ZM40.6467 23.5002C41.4197 23.5002 42.0899 23.3477 42.6572 23.0428C43.2246 22.7307 43.6607 22.3194 43.9656 21.8088C44.2777 21.2982 44.4337 20.7415 44.4337 20.1387V18.2133C44.3131 18.3126 44.1075 18.4048 43.8167 18.4899C43.533 18.575 43.2139 18.6495 42.8593 18.7133C42.5047 18.7771 42.1537 18.8338 41.8062 18.8835C41.4587 18.9331 41.1573 18.9757 40.902 19.0111C40.3276 19.0891 39.8135 19.2168 39.3596 19.3941C38.9057 19.5714 38.5476 19.8196 38.2852 20.1387C38.0228 20.4507 37.8916 20.855 37.8916 21.3514C37.8916 22.0606 38.1504 22.596 38.6681 22.9577C39.1858 23.3193 39.8454 23.5002 40.6467 23.5002ZM50.7979 26V9.66073H54.4785V12.4371H54.67C55.0104 11.501 55.5742 10.7706 56.3614 10.2458C57.1485 9.71392 58.0882 9.44798 59.1803 9.44798C60.2866 9.44798 61.2192 9.71747 61.978 10.2564C62.7439 10.7883 63.2828 11.5152 63.5949 12.4371H63.7651C64.1268 11.5294 64.7366 10.806 65.5947 10.2671C66.4599 9.72101 67.4847 9.44798 68.669 9.44798C70.1724 9.44798 71.3993 9.92313 72.3496 10.8734C73.2999 11.8237 73.775 13.2101 73.775 15.0327V26H69.9136V15.6284C69.9136 14.6143 69.6441 13.8732 69.1051 13.4051C68.5662 12.93 67.9066 12.6924 67.1265 12.6924C66.1975 12.6924 65.4706 12.9832 64.9459 13.5647C64.4282 14.1391 64.1693 14.8873 64.1693 15.8092V26H60.393V15.4688C60.393 14.6249 60.1377 13.9512 59.6271 13.4477C59.1236 12.9442 58.464 12.6924 57.6485 12.6924C57.0953 12.6924 56.5918 12.8343 56.138 13.1179C55.6841 13.3945 55.3224 13.7881 55.0529 14.2987C54.7835 14.8022 54.6487 15.3908 54.6487 16.0645V26H50.7979ZM95.9706 15.1072C95.9706 17.4545 95.5309 19.465 94.6515 21.1386C93.7792 22.8052 92.5878 24.0817 91.0773 24.9682C89.5739 25.8546 87.8683 26.2979 85.9606 26.2979C84.053 26.2979 82.3439 25.8546 80.8333 24.9682C79.3299 24.0746 78.1385 22.7946 77.2591 21.128C76.3869 19.4544 75.9507 17.4474 75.9507 15.1072C75.9507 12.7598 76.3869 10.7529 77.2591 9.08631C78.1385 7.41267 79.3299 6.13262 80.8333 5.24615C82.3439 4.35969 84.053 3.91646 85.9606 3.91646C87.8683 3.91646 89.5739 4.35969 91.0773 5.24615C92.5878 6.13262 93.7792 7.41267 94.6515 9.08631C95.5309 10.7529 95.9706 12.7598 95.9706 15.1072ZM92.0028 15.1072C92.0028 13.4548 91.7439 12.0613 91.2262 10.9266C90.7156 9.78484 90.0065 8.9232 89.0987 8.34168C88.191 7.75307 87.145 7.45876 85.9606 7.45876C84.7763 7.45876 83.7303 7.75307 82.8226 8.34168C81.9148 8.9232 81.2021 9.78484 80.6844 10.9266C80.1738 12.0613 79.9185 13.4548 79.9185 15.1072C79.9185 16.7595 80.1738 18.1566 80.6844 19.2983C81.2021 20.433 81.9148 21.2947 82.8226 21.8833C83.7303 22.4648 84.7763 22.7555 85.9606 22.7555C87.145 22.7555 88.191 22.4648 89.0987 21.8833C90.0065 21.2947 90.7156 20.433 91.2262 19.2983C91.7439 18.1566 92.0028 16.7595 92.0028 15.1072ZM98.1835 32.1272V9.66073H101.97V12.3627H102.194C102.392 11.9655 102.673 11.5436 103.034 11.0968C103.396 10.6429 103.885 10.2564 104.502 9.93731C105.119 9.61109 105.906 9.44798 106.864 9.44798C108.126 9.44798 109.264 9.77066 110.278 10.416C111.3 11.0543 112.108 12.001 112.704 13.2562C113.307 14.5044 113.608 16.0362 113.608 17.8516C113.608 19.6458 113.314 21.1706 112.725 22.4258C112.136 23.681 111.335 24.6384 110.321 25.2979C109.307 25.9574 108.158 26.2872 106.874 26.2872C105.938 26.2872 105.162 26.1312 104.545 25.8192C103.928 25.5071 103.431 25.1313 103.055 24.6916C102.687 24.2448 102.4 23.8228 102.194 23.4257H102.034V32.1272H98.1835ZM101.96 17.8304C101.96 18.887 102.109 19.8125 102.407 20.6068C102.712 21.401 103.148 22.0216 103.715 22.4683C104.289 22.908 104.984 23.1279 105.8 23.1279C106.651 23.1279 107.364 22.9009 107.938 22.4471C108.513 21.9861 108.945 21.3585 109.236 20.5642C109.534 19.7629 109.683 18.8516 109.683 17.8304C109.683 16.8163 109.537 15.9156 109.247 15.1284C108.956 14.3413 108.523 13.7243 107.949 13.2775C107.374 12.8307 106.658 12.6073 105.8 12.6073C104.977 12.6073 104.279 12.8236 103.704 13.2562C103.13 13.6888 102.694 14.2952 102.396 15.0752C102.105 15.8553 101.96 16.7737 101.96 17.8304ZM128.472 13.9796L124.961 14.3625C124.862 14.0079 124.688 13.6746 124.44 13.3626C124.199 13.0506 123.873 12.7988 123.461 12.6073C123.05 12.4159 122.546 12.3201 121.951 12.3201C121.149 12.3201 120.476 12.4939 119.93 12.8414C119.391 13.1889 119.125 13.6392 119.132 14.1923C119.125 14.6675 119.298 15.054 119.653 15.3518C120.015 15.6497 120.61 15.8943 121.44 16.0858L124.227 16.6815C125.773 17.0148 126.922 17.5432 127.674 18.2665C128.433 18.9899 128.816 19.9366 128.823 21.1067C128.816 22.135 128.514 23.0428 127.918 23.8299C127.33 24.61 126.511 25.2199 125.461 25.6596C124.412 26.0993 123.206 26.3191 121.844 26.3191C119.845 26.3191 118.235 25.9007 117.015 25.0639C115.795 24.22 115.068 23.0463 114.834 21.5429L118.589 21.1812C118.759 21.9187 119.121 22.4754 119.674 22.8513C120.227 23.2271 120.947 23.4151 121.834 23.4151C122.749 23.4151 123.483 23.2271 124.036 22.8513C124.596 22.4754 124.876 22.0109 124.876 21.4578C124.876 20.9897 124.695 20.6032 124.334 20.2983C123.979 19.9933 123.426 19.7593 122.674 19.5962L119.887 19.0111C118.32 18.6849 117.16 18.1353 116.409 17.3623C115.657 16.5822 115.285 15.5965 115.292 14.4051C115.285 13.3981 115.558 12.5258 116.111 11.7882C116.671 11.0436 117.448 10.4692 118.44 10.065C119.44 9.65364 120.593 9.44798 121.898 9.44798C123.812 9.44798 125.319 9.85576 126.419 10.6713C127.525 11.4868 128.209 12.5896 128.472 13.9796Z" fill="white"/>
<path d="M139.406 11.1136C141.399 11.1136 143.015 9.49775 143.015 7.50445C143.015 5.51115 141.399 3.89526 139.406 3.89526C137.413 3.89526 135.797 5.51115 135.797 7.50445C135.797 9.49775 137.413 11.1136 139.406 11.1136Z" fill="white"/>
<path d="M139.406 9.82998C140.69 9.82998 141.732 8.78886 141.732 7.50459C141.732 6.22031 140.69 5.1792 139.406 5.1792C138.122 5.1792 137.081 6.22031 137.081 7.50459C137.081 8.78886 138.122 9.82998 139.406 9.82998Z" fill="white" stroke="white" stroke-width="2.5676" stroke-miterlimit="10"/>
<path d="M139.372 26.3937C141.365 26.3937 142.981 24.7778 142.981 22.7845C142.981 20.7912 141.365 19.1753 139.372 19.1753C137.379 19.1753 135.763 20.7912 135.763 22.7845C135.763 24.7778 137.379 26.3937 139.372 26.3937Z" fill="white"/>
<path d="M139.372 25.11C140.657 25.11 141.698 24.0689 141.698 22.7846C141.698 21.5003 140.657 20.4592 139.372 20.4592C138.088 20.4592 137.047 21.5003 137.047 22.7846C137.047 24.0689 138.088 25.11 139.372 25.11Z" fill="white" stroke="white" stroke-width="2.5676" stroke-miterlimit="10"/>
<path d="M149.891 18.9061C151.884 18.9061 153.5 17.2902 153.5 15.2969C153.5 13.3036 151.884 11.6877 149.891 11.6877C147.898 11.6877 146.282 13.3036 146.282 15.2969C146.282 17.2902 147.898 18.9061 149.891 18.9061Z" fill="white"/>
<path d="M149.891 17.622C151.175 17.622 152.217 16.5809 152.217 15.2966C152.217 14.0123 151.175 12.9712 149.891 12.9712C148.607 12.9712 147.566 14.0123 147.566 15.2966C147.566 16.5809 148.607 17.622 149.891 17.622Z" fill="white" stroke="white" stroke-width="2.5676" stroke-miterlimit="10"/>
</svg>
